[
  {
    "directory": "/home/takedanemuru/kusozako-tech/kusozako-text/obj-x86_64-linux-gnu",
    "command": "/usr/bin/meson test --no-rebuild --print-errorlogs",
    "file": "all",
    "output": "meson-test"
  },
  {
    "directory": "/home/takedanemuru/kusozako-tech/kusozako-text/obj-x86_64-linux-gnu",
    "command": "",
    "file": "meson-test",
    "output": "test"
  },
  {
    "directory": "/home/takedanemuru/kusozako-tech/kusozako-text/obj-x86_64-linux-gnu",
    "command": "/usr/bin/meson test --benchmark --logbase benchmarklog --num-processes=1 --no-rebuild",
    "file": "all",
    "output": "meson-benchmark"
  },
  {
    "directory": "/home/takedanemuru/kusozako-tech/kusozako-text/obj-x86_64-linux-gnu",
    "command": "",
    "file": "meson-benchmark",
    "output": "benchmark"
  },
  {
    "directory": "/home/takedanemuru/kusozako-tech/kusozako-text/obj-x86_64-linux-gnu",
    "command": "/usr/bin/meson install --no-rebuild",
    "file": "PHONY",
    "output": "meson-install"
  },
  {
    "directory": "/home/takedanemuru/kusozako-tech/kusozako-text/obj-x86_64-linux-gnu",
    "command": "",
    "file": "meson-install",
    "output": "install"
  },
  {
    "directory": "/home/takedanemuru/kusozako-tech/kusozako-text/obj-x86_64-linux-gnu",
    "command": "/usr/bin/meson dist",
    "file": "PHONY",
    "output": "meson-dist"
  },
  {
    "directory": "/home/takedanemuru/kusozako-tech/kusozako-text/obj-x86_64-linux-gnu",
    "command": "",
    "file": "meson-dist",
    "output": "dist"
  },
  {
    "directory": "/home/takedanemuru/kusozako-tech/kusozako-text/obj-x86_64-linux-gnu",
    "command": "/usr/bin/meson --internal uninstall",
    "file": "PHONY",
    "output": "meson-uninstall"
  },
  {
    "directory": "/home/takedanemuru/kusozako-tech/kusozako-text/obj-x86_64-linux-gnu",
    "command": "",
    "file": "meson-uninstall",
    "output": "uninstall"
  },
  {
    "directory": "/home/takedanemuru/kusozako-tech/kusozako-text/obj-x86_64-linux-gnu",
    "command": "",
    "file": "meson-clean",
    "output": "clean"
  },
  {
    "directory": "/home/takedanemuru/kusozako-tech/kusozako-text/obj-x86_64-linux-gnu",
    "command": "/usr/bin/ninja -t clean",
    "file": "PHONY",
    "output": "meson-clean"
  },
  {
    "directory": "/home/takedanemuru/kusozako-tech/kusozako-text/obj-x86_64-linux-gnu",
    "command": "/usr/bin/meson --internal regenerate /home/takedanemuru/kusozako-tech/kusozako-text /home/takedanemuru/kusozako-tech/kusozako-text/obj-x86_64-linux-gnu --backend ninja",
    "file": "../meson.build",
    "output": "build.ninja"
  },
  {
    "directory": "/home/takedanemuru/kusozako-tech/kusozako-text/obj-x86_64-linux-gnu",
    "command": "/usr/bin/meson --internal regenerate /home/takedanemuru/kusozako-tech/kusozako-text /home/takedanemuru/kusozako-tech/kusozako-text/obj-x86_64-linux-gnu --backend ninja",
    "file": "PHONY",
    "output": "reconfigure"
  }
]
